20141285D;13;8;19;8
20145307K;1;6;18;17
20141389X;13;9;18;19
20146719F;7;11;19;2
20146587H;10;1;8;11
20142546M;6;12;18;18
20140117G;5;19;6;13
20143144O;7;20;9;1
20148864G;4;8;19;3
20145717K;5;14;8;15
20147898C;1;11;18;14
20140008S;15;10;5;10
20146734Y;16;11;17;16
20143117Y;11;13;18;4
20143853N;3;11;11;8
20144290X;8;9;14;2
20141823O;20;0;15;11
20145891R;0;17;5;1
20143340B;14;11;9;7
20149436S;1;3;8;16
20145023S;15;18;13;11
20145229A;19;11;0;0
20141411Y;12;11;19;18
20147998T;13;13;3;14
20142510U;17;16;19;8
20141253B;20;19;6;5
20140853M;8;20;6;17
20140028H;0;6;7;3
20141893J;7;20;19;14
20148290N;11;19;19;11
20146578L;13;16;5;2
20140378S;6;12;15;17
20141950J;17;4;20;16
20149044D;8;18;15;8
20146147G;11;15;1;14
20149282S;2;11;0;15
20140471S;15;3;15;16
20147255U;1;3;4;6
20145294X;18;18;18;14
20143358G;11;6;19;12
20142185K;2;20;1;2
20148106Z;0;4;14;1
20148442X;16;1;7;19
20145698Q;20;3;9;11
20140695O;5;18;7;8
20143398X;8;10;11;0
20143494D;8;3;0;15
20144481S;12;10;2;16
20142904L;7;2;19;16
20149663Z;4;13;14;19
20140156H;10;19;20;4
20146403W;17;11;7;0
20148554O;0;19;3;2
20141589X;13;1;10;3
20146273R;7;20;2;7
20148209O;13;12;17;17
20148717F;1;4;3;2
20148994U;15;3;18;1
20143926I;7;1;19;11
20143972R;3;1;8;12
20140903X;4;2;15;2
20149691R;5;6;3;20
20144405M;0;4;17;1
20145481Y;16;5;20;0
20146848C;19;13;9;11
20144658E;3;10;2;2
20144216D;8;4;20;10
20147353F;9;0;12;7
20149153H;8;6;5;11
20149358N;11;5;17;17
20145087N;12;20;20;16
20140321J;18;5;20;2
20148169L;20;11;3;7
20147606L;13;19;1;12
20148024H;1;6;14;6
20142058G;5;15;11;8
20145318R;7;8;19;5
20140376V;18;13;3;5
20142818X;18;3;3;3
20141548M;4;18;18;17
20141833U;9;10;10;16
20147208E;0;9;3;15
20146488Z;5;17;15;4
20142863M;1;11;6;18
20140221T;9;8;17;0
20148137C;14;18;10;20
20144132S;15;2;17;14
20148295Z;10;1;0;12
20140267I;0;5;13;14
20145687K;19;11;19;18
20142161R;17;16;17;4
20145964T;11;2;1;4
20146046Q;13;5;1;17
20143419H;20;10;20;12
20146691U;4;19;15;18
20142643A;10;18;15;4
20144216X;4;11;10;2
20148359I;2;1;11;18
20141689F;11;15;18;2
20149310D;14;0;13;14
20146087D;11;10;17;17
20149717U;5;5;10;13
20141439D;5;6;20;6
20145077Q;1;0;17;4
20140805S;20;14;10;9
20145812H;6;8;12;8
20146135N;12;13;13;12
20143660M;6;15;7;11
20144059K;17;2;18;15
20140855C;5;12;10;14
20148225N;16;8;14;8
20141065S;8;0;15;1
20140009S;18;2;19;10
20144508M;6;6;5;10
20147343L;17;1;13;8
20149575N;20;1;16;2
20142819W;8;6;1;1
20142256A;1;2;7;13
20149734V;4;7;16;12
20144181M;5;8;10;16
20149874G;0;10;3;13
20140500C;14;16;6;5
20149442D;16;7;17;10
20146143F;20;7;16;7
20145847E;1;7;15;17
20149427R;18;20;14;3
20140397O;6;18;18;5
20140700X;0;18;7;20
20142280G;14;13;17;7
20142088V;4;12;10;0
20145297G;14;4;14;14
20149898V;1;1;7;11
20147146G;2;0;11;13
20146363T;16;4;14;15
20147627X;5;12;19;3
20140951O;0;10;4;20
20140513C;9;14;19;12
20141765S;4;19;3;7
20143101H;5;0;19;12
20145953F;14;18;15;6
20141061F;20;17;6;18
20149343Q;1;2;7;15
20145308S;6;8;11;11
20149407A;16;0;2;1
20143655K;3;7;12;9
20149328T;19;11;6;0
20148259Q;18;9;10;4
20148387U;0;12;16;5
20148851S;6;16;8;13
20140082I;10;19;5;12
20143548G;10;2;9;15
20142886C;18;8;2;4
20145628P;17;19;16;15
20147772X;6;0;18;17
20146803N;5;17;15;16
20148141C;7;1;19;13
20148244Y;5;11;13;14
20144912S;14;9;4;12
20144397B;16;5;12;1
20145259Y;2;13;6;14
20146465R;16;14;16;4
20145539V;16;19;9;5
20148952G;16;6;15;16
20146334G;1;3;5;5
20140382V;12;6;2;15
20146848J;17;1;4;1
20146146E;11;2;3;2
20146698B;11;1;13;19
20146357Z;2;5;7;17
20141266I;5;18;9;14
20146781A;10;10;14;2
20141596P;15;9;10;0
20149778E;2;5;15;19
20143349T;7;16;14;11
20143383P;10;6;3;6
20142855P;4;8;10;5
20143937F;20;12;6;7
20142307P;14;18;18;8
20140450H;6;11;14;9
20141832T;9;4;0;19
20149146I;17;2;8;3
20147345S;13;14;9;6
20140187C;9;19;1;7
20148218F;15;15;19;10
20142432X;12;13;2;8
20146477Z;10;2;11;11
20140170B;12;11;5;20
20141254R;4;3;9;12
20144402U;12;17;15;0
20140415J;9;20;13;4
20149627B;19;7;16;15
20140398O;12;4;5;14
20144103F;14;19;13;12
20147257L;7;8;8;5
20144250L;3;9;1;18
20145600V;1;20;10;10
20141327X;5;8;11;13
20143215L;6;3;15;12
20148286F;10;14;19;20
20144182W;9;9;17;2
20142080K;5;19;1;9
20149706A;1;5;10;5
20145242D;15;19;0;18
20144098N;5;3;15;9
20147502A;12;13;14;1
20144244C;17;19;14;17
20144428E;19;20;12;12
20141290F;11;14;17;1
20141617M;8;1;3;13
20145496T;1;14;6;11
20149894D;19;18;0;3
20143893H;7;17;11;20
20147109Q;12;0;6;10
20146406Y;2;15;14;3
20140715V;17;1;16;20
20149724R;5;12;17;20
20147993X;7;17;1;7
20145614C;16;5;17;17
20147789Y;9;0;13;19
20142232L;1;2;8;4
